verilog/arithmetic/synth/cordic.vcd
$date
	Fri Apr 10 10:04:19 2026
$end
$version
	Icarus Verilog
$end
$timescale
	1s
$end
$scope module cordic_tb $end
$var wire 1 ! zo $end
$var wire 1 " yo $end
$var wire 1 # xo $end
$var wire 1 $ valid $end
$var reg 1 % clk $end
$var reg 16 & cos_neg_pi_over_3 [15:0] $end
$var reg 16 ' cos_pi_over_8 [15:0] $end
$var reg 64 ( expected_x [63:0] $end
$var reg 64 ) expected_y [63:0] $end
$var reg 64 * expected_z [63:0] $end
$var reg 1 + fail $end
$var reg 16 , gain [15:0] $end
$var reg 16 - gained_vec_len [15:0] $end
$var reg 16 . inv_gain [15:0] $end
$var reg 16 / neg_pi_over_3 [15:0] $end
$var reg 16 0 neg_pi_over_4 [15:0] $end
$var reg 16 1 pi_over_4 [15:0] $end
$var reg 16 2 pi_over_8 [15:0] $end
$var reg 64 3 rot [63:0] $end
$var reg 1 4 sclr $end
$var reg 16 5 sin_neg_pi_over_3 [15:0] $end
$var reg 16 6 sin_pi_over_8 [15:0] $end
$var reg 64 7 xin [63:0] $end
$var reg 64 8 xout [63:0] $end
$var reg 64 9 yin [63:0] $end
$var reg 64 : yout [63:0] $end
$var reg 64 ; zin [63:0] $end
$var reg 64 < zout [63:0] $end
$scope function significant_error $end
$var reg 64 = a [63:0] $end
$var reg 64 > b [63:0] $end
$var integer 32 ? diff [31:0] $end
$var integer 32 @ n [31:0] $end
$scope begin cmp $end
$upscope $end
$upscope $end
$scope module dut $end
$var wire 1 % clk $end
$var wire 1 A rot $end
$var wire 1 4 sclr $end
$var wire 1 $ valid $end
$var wire 1 B xi $end
$var wire 1 C yi $end
$var wire 1 D zi $end
$var wire 1 E zsum $end
$var wire 1 F zrom_load $end
$var wire 1 ! zo $end
$var wire 1 G ysum $end
$var wire 1 H yshift $end
$var wire 1 " yo $end
$var wire 1 I xsum $end
$var wire 1 J xshift $end
$var wire 1 # xo $end
$var wire 1 K isel $end
$var wire 1 L first $end
$var reg 4 M bits_left [3:0] $end
$var reg 1 N d $end
$var reg 1 O last_xshift $end
$var reg 1 P last_yshift $end
$var reg 4 Q round_num [3:0] $end
$var reg 1 K round_num_max $end
$var reg 1 R sign_ext $end
$var reg 16 S x [15:0] $end
$var reg 16 T y [15:0] $end
$var reg 16 U z [15:0] $end
$var reg 16 V zrom [15:0] $end
$scope module xa $end
$var wire 1 W a $end
$var wire 1 H b $end
$var wire 1 % clk $end
$var wire 1 L first $end
$var wire 1 4 sclr $end
$var wire 1 N sub $end
$var wire 1 I sum $end
$var reg 1 X car $end
$upscope $end
$scope module ya $end
$var wire 1 Y a $end
$var wire 1 J b $end
$var wire 1 % clk $end
$var wire 1 L first $end
$var wire 1 4 sclr $end
$var wire 1 Z sub $end
$var wire 1 G sum $end
$var reg 1 [ car $end
$upscope $end
$scope module za $end
$var wire 1 \ a $end
$var wire 1 ] b $end
$var wire 1 % clk $end
$var wire 1 L first $end
$var wire 1 4 sclr $end
$var wire 1 N sub $end
$var wire 1 E sum $end
$var reg 1 ^ car $end
$upscope $end
$upscope $end
$upscope $end
$enddefinitions $end
#0
$dumpvars
x^
x]
x\
x[
xZ
xY
xX
xW
bx V
bx U
bx T
bx S
xR
bx Q
xP
xO
xN
bx M
xL
xK
xJ
xI
xH
xG
xF
xE
1D
0C
1B
1A
bx @
bx ?
bx >
bx =
bx <
b10111100111110100001100100100001 ;
bx :
b1111000000000000000100000000000000000000000000000000000000000000 9
bx 8
b1000000000000000100000000000000100110110111010010011011011101 7
b1100001111101 6
b1100100010010011 5
04
b1 3
b1100100100001 2
b11001001000011 1
b1100110110111100 0
b1011110011111010 /
b10011011011101 .
b10010101000011 -
b110100101100100 ,
0+
b1100110110111100001100100100001100000000000000000000000000000000 *
b11001000100100110001100001111101 )
b10010101000011001001010100001100100000000000000011101100100000 (
b11101100100000 '
b10000000000000 &
0%
x$
x#
x"
x!
$end
#5
b0xxxxxxxxxxxxxxx V
1%
#10
14
0%
#15
0E
0G
0I
0]
0\
0!
0Y
0"
0W
0#
0J
0H
b0 V
b0 U
b0 T
b0 S
1Z
0N
0P
0O
0$
0K
0R
1L
0F
b1111 M
b0 Q
0^
0[
0X
1%
#20
04
0%
#25
1[
0L
b1110 M
1%
#30
0%
#35
b1101 M
1%
#40
0%
#45
b1100 M
1%
#50
0%
#55
b1011 M
1%
#60
0%
#65
b1010 M
1%
#70
0%
#75
b1001 M
1%
#80
0%
#85
b1000 M
1%
#90
0%
#95
b111 M
1%
#100
0%
#105
b110 M
1%
#110
0%
#115
b101 M
1%
#120
0%
#125
b100 M
1%
#130
0%
#135
b11 M
1%
#140
0%
#145
b10 M
1%
#150
0%
#155
b1 M
1%
#160
0%
#165
1F
b0 M
1%
#170
0%
#175
0I
0G
0E
b1110110101100 V
0Z
1N
b1 Q
0R
1L
0F
b1111 M
1%
#180
0%
#185
1X
0[
1^
0L
b1110 M
b111011010110 V
1%
#190
0%
#195
1E
1]
b11101101011 V
b1101 M
1%
#200
0%
#205
0E
0^
b1100 M
b1000000000000000 U
b1110110101 V
1%
#210
0%
#215
1E
0]
b111011010 V
b100000000000000 U
b1011 M
1%
#220
0%
#225
0E
1]
b1010 M
b1010000000000000 U
b11101101 V
1%
#230
0%
#235
1E
0]
b1110110 V
b101000000000000 U
b1001 M
1%
#240
0%
#245
0E
1]
b1000 M
b1010100000000000 U
b111011 V
1%
#250
0%
#255
b11101 V
b101010000000000 U
b111 M
1%
#260
0%
#265
1E
0]
b110 M
b10101000000000 U
b1110 V
1%
#270
0%
#275
0E
1]
b111 V
b1001010100000000 U
b101 M
1%
#280
0%
#285
b100 M
b100101010000000 U
b11 V
1%
#290
0%
#295
b1 V
b10010101000000 U
b11 M
1%
#300
0%
#305
1E
0]
b10 M
b1001010100000 U
b0 V
1%
#310
0%
#315
b1000100101010000 U
b1 M
1%
#320
0%
#325
1R
1F
b0 M
b1100010010101000 U
1%
#330
0%
#335
1E
0I
0G
1]
b111110101101 V
b1110001001010100 U
1Z
0N
b10 Q
0R
1L
0F
b1111 M
1%
#340
0%
#345
0E
0]
0X
1[
0L
b1110 M
b1111000100101010 U
b11111010110 V
1%
#350
0%
#355
0E
1]
1\
1!
b1111101011 V
b111100010010101 U
b1101 M
1%
#360
0%
#365
0\
0!
1^
b1100 M
b11110001001010 U
b111110101 V
1%
#370
0%
#375
0E
0]
1\
1!
b11111010 V
b1111000100101 U
b1011 M
1%
#380
0%
#385
0\
0!
1]
b1010 M
b111100010010 U
b1111101 V
1%
#390
0%
#395
0E
0]
1\
1!
b111110 V
b11110001001 U
b1001 M
1%
#400
0%
#405
0\
0!
1]
b1000 M
b1111000100 U
b11111 V
1%
#410
0%
#415
b1111 V
b111100010 U
b111 M
1%
#420
0%
#425
1E
1\
1!
b110 M
b11110001 U
b111 V
1%
#430
0%
#435
0E
0\
0!
b11 V
b1000000001111000 U
b101 M
1%
#440
0%
#445
b100 M
b100000000111100 U
b1 V
1%
#450
0%
#455
1E
0]
b0 V
b10000000011110 U
b11 M
1%
#460
0%
#465
1\
1!
0^
b10 M
b1001000000001111 U
1%
#470
0%
#475
b1100100000000111 U
1R
b1 M
1%
#480
0%
#485
1F
b0 M
b1110010000000011 U
1%
#490
0%
#495
0E
1]
b11111110101 V
b1111001000000001 U
b11 Q
0R
1L
0F
b1111 M
1%
#500
0%
#505
1E
0\
0!
0]
1^
0L
b1110 M
b111100100000000 U
b1111111010 V
1%
#510
0%
#515
1E
1]
b111111101 V
b1011110010000000 U
b1101 M
0^
1%
#520
0%
#525
0E
0]
b1100 M
b1101111001000000 U
b11111110 V
1%
#530
0%
#535
1E
1]
b1111111 V
b110111100100000 U
b1011 M
1%
#540
0%
#545
b1010 M
b1011011110010000 U
b111111 V
1%
#550
0%
#555
b11111 V
b1101101111001000 U
b1001 M
1%
#560
0%
#565
b1000 M
b1110110111100100 U
b1111 V
1%
#570
0%
#575
b111 V
b1111011011110010 U
b111 M
1%
#580
0%
#585
0E
1\
1!
b110 M
b1111101101111001 U
b11 V
1%
#590
0%
#595
0E
0\
0!
b1 V
b111110110111100 U
b101 M
1^
1%
#600
0%
#605
1E
0]
b100 M
b11111011011110 U
b0 V
1%
#610
0%
#615
1E
1\
1!
b1001111101101111 U
b11 M
0^
1%
#620
0%
#625
1R
b10 M
b1100111110110111 U
1%
#630
0%
#635
b1110011111011011 U
b1 M
1%
#640
0%
#645
1F
b0 M
b1111001111101101 U
1%
#650
0%
#655
0E
0\
0!
b1111111110 V
b1111100111110110 U
b100 Q
0R
1L
0F
b1111 M
1%
#660
0%
#665
1\
1!
1]
0L
b1110 M
b111110011111011 U
b111111111 V
1%
#670
0%
#675
1E
b11111111 V
b11111001111101 U
b1101 M
1^
1%
#680
0%
#685
0E
0\
0!
b1100 M
b1001111100111110 U
b1111111 V
1%
#690
0%
#695
1E
1\
1!
b111111 V
b100111110011111 U
b1011 M
1%
#700
0%
#705
b1010 M
b1010011111001111 U
b11111 V
1%
#710
0%
#715
b1111 V
b1101001111100111 U
b1001 M
1%
#720
0%
#725
b1000 M
b1110100111110011 U
b111 V
1%
#730
0%
#735
b11 V
b1111010011111001 U
b111 M
1%
#740
0%
#745
0E
0\
0!
b110 M
b1111101001111100 U
b1 V
1%
#750
0%
#755
1E
0]
b0 V
b111110100111110 U
b101 M
1%
#760
0%
#765
1\
1!
0^
b100 M
b1011111010011111 U
1%
#770
0%
#775
b1101111101001111 U
1R
b11 M
1%
#780
0%
#785
b10 M
b1110111110100111 U
1%
#790
0%
#795
b1111011111010011 U
b1 M
1%
#800
0%
#805
1F
b0 M
b1111101111101001 U
1%
#810
0%
#815
1E
1]
0\
0!
b111111111 V
b1111110111110100 U
b101 Q
0R
1L
0F
b1111 M
1%
#820
0%
#825
0L
b1110 M
b1111111011111010 U
b11111111 V
1%
#830
0%
#835
0E
1\
1!
b1111111 V
b1111111101111101 U
b1101 M
1%
#840
0%
#845
0\
0!
1^
b1100 M
b111111110111110 U
b111111 V
1%
#850
0%
#855
1E
1\
1!
b11111 V
b11111111011111 U
b1011 M
1%
#860
0%
#865
b1010 M
b1001111111101111 U
b1111 V
1%
#870
0%
#875
b111 V
b1100111111110111 U
b1001 M
1%
#880
0%
#885
b1000 M
b1110011111111011 U
b11 V
1%
#890
0%
#895
b1 V
b1111001111111101 U
b111 M
1%
#900
0%
#905
0\
0!
0]
b110 M
b1111100111111110 U
b0 V
1%
#910
0%
#915
1E
1\
1!
b1111110011111111 U
b101 M
0^
1%
#920
0%
#925
1R
b100 M
b1111111001111111 U
1%
#930
0%
#935
b1111111100111111 U
b11 M
1%
#940
0%
#945
b10 M
b1111111110011111 U
1%
#950
0%
#955
b1111111111001111 U
b1 M
1%
#960
0%
#965
1F
b0 M
b1111111111100111 U
1%
#970
0%
#975
0E
1]
b11111111 V
b1111111111110011 U
b110 Q
0R
1L
0F
b1111 M
1%
#980
0%
#985
1E
1^
0L
b1110 M
b111111111111001 U
b1111111 V
1%
#990
0%
#995
0E
0\
0!
b111111 V
b1011111111111100 U
b1101 M
1%
#1000
0%
#1005
b1100 M
b101111111111110 U
b11111 V
1%
#1010
0%
#1015
1E
1\
1!
b1111 V
b10111111111111 U
b1011 M
1%
#1020
0%
#1025
b1010 M
b1001011111111111 U
b111 V
1%
#1030
0%
#1035
b11 V
b1100101111111111 U
b1001 M
1%
#1040
0%
#1045
b1000 M
b1110010111111111 U
b1 V
1%
#1050
0%
#1055
0E
0]
b0 V
b1111001011111111 U
b111 M
1%
#1060
0%
#1065
b110 M
b111100101111111 U
1%
#1070
0%
#1075
b11110010111111 U
1R
b101 M
1%
#1080
0%
#1085
b100 M
b1111001011111 U
1%
#1090
0%
#1095
b111100101111 U
b11 M
1%
#1100
0%
#1105
b10 M
b11110010111 U
1%
#1110
0%
#1115
b1111001011 U
b1 M
1%
#1120
0%
#1125
1F
b0 M
b111100101 U
1%
#1130
0%
#1135
1E
0I
0G
1]
0\
0!
b1111111 V
b11110010 U
0Z
1N
b111 Q
0R
1L
0F
b1111 M
1%
#1140
0%
#1145
1\
1!
1X
0[
0^
0L
b1110 M
b1000000001111001 U
b111111 V
1%
#1150
0%
#1155
0E
0\
0!
b11111 V
b1100000000111100 U
b1101 M
1%
#1160
0%
#1165
b1100 M
b110000000011110 U
b1111 V
1%
#1170
0%
#1175
1E
1\
1!
b111 V
b11000000001111 U
b1011 M
1%
#1180
0%
#1185
b1010 M
b1001100000000111 U
b11 V
1%
#1190
0%
#1195
b1 V
b1100110000000011 U
b1001 M
1%
#1200
0%
#1205
0E
0]
b1000 M
b1110011000000001 U
b0 V
1%
#1210
0%
#1215
0E
0\
0!
b111001100000000 U
b111 M
1^
1%
#1220
0%
#1225
1R
b110 M
b11100110000000 U
1%
#1230
0%
#1235
b1110011000000 U
b101 M
1%
#1240
0%
#1245
b100 M
b111001100000 U
1%
#1250
0%
#1255
b11100110000 U
b11 M
1%
#1260
0%
#1265
b10 M
b1110011000 U
1%
#1270
0%
#1275
b111001100 U
b1 M
1%
#1280
0%
#1285
1F
b0 M
b11100110 U
1%
#1290
0%
#1295
0E
1]
1\
1!
b111111 V
b1110011 U
b1000 Q
0R
1L
0F
b1111 M
1%
#1300
0%
#1305
0L
b1110 M
b111001 U
b11111 V
1%
#1310
0%
#1315
1E
0\
0!
b1111 V
b11100 U
b1101 M
1%
#1320
0%
#1325
0E
0^
b1100 M
b1000000000001110 U
b111 V
1%
#1330
0%
#1335
1E
1\
1!
b11 V
b100000000000111 U
b1011 M
1%
#1340
0%
#1345
b1010 M
b1010000000000011 U
b1 V
1%
#1350
0%
#1355
0E
0]
b0 V
b1101000000000001 U
b1001 M
1%
#1360
0%
#1365
0\
0!
1^
b1000 M
b110100000000000 U
1%
#1370
0%
#1375
b11010000000000 U
1R
b111 M
1%
#1380
0%
#1385
b110 M
b1101000000000 U
1%
#1390
0%
#1395
b110100000000 U
b101 M
1%
#1400
0%
#1405
b100 M
b11010000000 U
1%
#1410
0%
#1415
b1101000000 U
b11 M
1%
#1420
0%
#1425
b10 M
b110100000 U
1%
#1430
0%
#1435
b11010000 U
b1 M
1%
#1440
0%
#1445
1F
b0 M
b1101000 U
1%
#1450
0%
#1455
1E
1]
b11111 V
b110100 U
b1001 Q
0R
1L
0F
b1111 M
1%
#1460
0%
#1465
0E
0^
0L
b1110 M
b1000000000011010 U
b1111 V
1%
#1470
0%
#1475
1E
1\
1!
b111 V
b100000000001101 U
b1101 M
1%
#1480
0%
#1485
0E
0\
0!
b1100 M
b1010000000000110 U
b11 V
1%
#1490
0%
#1495
1E
1\
1!
b1 V
b101000000000011 U
b1011 M
1%
#1500
0%
#1505
0E
0]
b1010 M
b1010100000000001 U
b0 V
1%
#1510
0%
#1515
0E
0\
0!
b101010000000000 U
b1001 M
1^
1%
#1520
0%
#1525
1R
b1000 M
b10101000000000 U
1%
#1530
0%
#1535
b1010100000000 U
b111 M
1%
#1540
0%
#1545
b110 M
b101010000000 U
1%
#1550
0%
#1555
b10101000000 U
b101 M
1%
#1560
0%
#1565
b100 M
b1010100000 U
1%
#1570
0%
#1575
b101010000 U
b11 M
1%
#1580
0%
#1585
b10 M
b10101000 U
1%
#1590
0%
#1595
b1010100 U
b1 M
1%
#1600
0%
#1605
1F
b0 M
b101010 U
1%
#1610
0%
#1615
0E
1]
1\
1!
b1111 V
b10101 U
b1010 Q
0R
1L
0F
b1111 M
1%
#1620
0%
#1625
1E
0\
0!
0L
b1110 M
b1010 U
b111 V
1%
#1630
0%
#1635
1E
1\
1!
b11 V
b1000000000000101 U
b1101 M
0^
1%
#1640
0%
#1645
0E
0\
0!
b1100 M
b1100000000000010 U
b1 V
1%
#1650
0%
#1655
0E
0]
1\
1!
b0 V
b110000000000001 U
b1011 M
1%
#1660
0%
#1665
0\
0!
1^
b1010 M
b11000000000000 U
1%
#1670
0%
#1675
b1100000000000 U
1R
b1001 M
1%
#1680
0%
#1685
b1000 M
b110000000000 U
1%
#1690
0%
#1695
b11000000000 U
b111 M
1%
#1700
0%
#1705
b110 M
b1100000000 U
1%
#1710
0%
#1715
b110000000 U
b101 M
1%
#1720
0%
#1725
b100 M
b11000000 U
1%
#1730
0%
#1735
b1100000 U
b11 M
1%
#1740
0%
#1745
b10 M
b110000 U
1%
#1750
0%
#1755
b11000 U
b1 M
1%
#1760
0%
#1765
1F
b0 M
b1100 U
1%
#1770
0%
#1775
1E
1]
b111 V
b110 U
b1011 Q
0R
1L
0F
b1111 M
1%
#1780
0%
#1785
1\
1!
0^
0L
b1110 M
b1000000000000011 U
b11 V
1%
#1790
0%
#1795
b1 V
b1100000000000001 U
b1101 M
1%
#1800
0%
#1805
0\
0!
0]
b1100 M
b1110000000000000 U
b0 V
1%
#1810
0%
#1815
b1111000000000000 U
b1011 M
1%
#1820
0%
#1825
1R
b1010 M
b1111100000000000 U
1%
#1830
0%
#1835
b1111110000000000 U
b1001 M
1%
#1840
0%
#1845
b1000 M
b1111111000000000 U
1%
#1850
0%
#1855
b1111111100000000 U
b111 M
1%
#1860
0%
#1865
b110 M
b1111111110000000 U
1%
#1870
0%
#1875
b1111111111000000 U
b101 M
1%
#1880
0%
#1885
b100 M
b1111111111100000 U
1%
#1890
0%
#1895
b1111111111110000 U
b11 M
1%
#1900
0%
#1905
b10 M
b1111111111111000 U
1%
#1910
0%
#1915
b1111111111111100 U
b1 M
1%
#1920
0%
#1925
1F
b0 M
b1111111111111110 U
1%
#1930
0%
#1935
0E
0I
0G
1]
1\
1!
b11 V
b1111111111111111 U
1Z
0N
b1100 Q
0R
1L
0F
b1111 M
1%
#1940
0%
#1945
1E
0X
1[
1^
0L
b1110 M
b111111111111111 U
b1 V
1%
#1950
0%
#1955
0E
0]
b0 V
b1011111111111111 U
b1101 M
1%
#1960
0%
#1965
b1100 M
b101111111111111 U
1%
#1970
0%
#1975
b10111111111111 U
1R
b1011 M
1%
#1980
0%
#1985
b1010 M
b1011111111111 U
1%
#1990
0%
#1995
b101111111111 U
b1001 M
1%
#2000
0%
#2005
b1000 M
b10111111111 U
1%
#2010
0%
#2015
b1011111111 U
b111 M
1%
#2020
0%
#2025
b110 M
b101111111 U
1%
#2030
0%
#2035
b10111111 U
b101 M
1%
#2040
0%
#2045
b100 M
b1011111 U
1%
#2050
0%
#2055
b101111 U
b11 M
1%
#2060
0%
#2065
b10 M
b10111 U
1%
#2070
0%
#2075
b1011 U
b1 M
1%
#2080
0%
#2085
1F
b0 M
b101 U
1%
#2090
0%
#2095
1E
0I
0G
1]
0\
0!
b1 V
b10 U
0Z
1N
b1101 Q
0R
1$
1K
1L
0F
b1111 M
1%
#2100
0%
#2105
0E
1\
1!
0]
0D
0B
1X
0[
0^
0L
b1110 M
b1000000000000001 U
b1000000000000000 S
b0 V
b0xxxxxxxxxxxxxxxxxxxxxxxxxxxxxxxxxxxxxxxxxxxxxxxxxxxxxxxxxxxxxxx <
b0xxxxxxxxxxxxxxxxxxxxxxxxxxxxxxxxxxxxxxxxxxxxxxxxxxxxxxxxxxxxxxx :
b0xxxxxxxxxxxxxxxxxxxxxxxxxxxxxxxxxxxxxxxxxxxxxxxxxxxxxxxxxxxxxxx 8
b1000000000000000000000000000000001011110011111010000110010010000 ;
b111100000000000000010000000000000000000000000000000000000000000 9
b1000100000000000000010000000000000010011011011101001001101101110 7
1%
#2110
0%
#2115
0E
1B
0\
0!
b10xxxxxxxxxxxxxxxxxxxxxxxxxxxxxxxxxxxxxxxxxxxxxxxxxxxxxxxxxxxxxx <
b0xxxxxxxxxxxxxxxxxxxxxxxxxxxxxxxxxxxxxxxxxxxxxxxxxxxxxxxxxxxxxx :
b0xxxxxxxxxxxxxxxxxxxxxxxxxxxxxxxxxxxxxxxxxxxxxxxxxxxxxxxxxxxxxx 8
b100000000000000000000000000000000101111001111101000011001001000 ;
b11110000000000000001000000000000000000000000000000000000000000 9
b100010000000000000001000000000000001001101101110100100110110111 7
b100000000000000 U
b100000000000000 S
b1101 M
1^
1%
#2120
0%
#2125
1R
b1100 M
b10000000000000 U
b1010000000000000 S
b10xxxxxxxxxxxxxxxxxxxxxxxxxxxxxxxxxxxxxxxxxxxxxxxxxxxxxxxxxxxxx <
b0xxxxxxxxxxxxxxxxxxxxxxxxxxxxxxxxxxxxxxxxxxxxxxxxxxxxxxxxxxxxx :
b0xxxxxxxxxxxxxxxxxxxxxxxxxxxxxxxxxxxxxxxxxxxxxxxxxxxxxxxxxxxxx 8
b10000000000000000000000000000000010111100111110100001100100100 ;
b1111000000000000000100000000000000000000000000000000000000000 9
b1010001000000000000000100000000000000100110110111010010011011011 7
1%
#2130
0%
#2135
b10xxxxxxxxxxxxxxxxxxxxxxxxxxxxxxxxxxxxxxxxxxxxxxxxxxxxxxxxxxxx <
b0xxxxxxxxxxxxxxxxxxxxxxxxxxxxxxxxxxxxxxxxxxxxxxxxxxxxxxxxxxxx :
b0xxxxxxxxxxxxxxxxxxxxxxxxxxxxxxxxxxxxxxxxxxxxxxxxxxxxxxxxxxxx 8
b1000000000000000000000000000000001011110011111010000110010010 ;
b111100000000000000010000000000000000000000000000000000000000 9
b1101000100000000000000010000000000000010011011011101001001101101 7
b1000000000000 U
b1101000000000000 S
b1011 M
1%
#2140
0%
#2145
1D
0B
b1010 M
b100000000000 U
b1110100000000000 S
b10xxxxxxxxxxxxxxxxxxxxxxxxxxxxxxxxxxxxxxxxxxxxxxxxxxxxxxxxxxx <
b0xxxxxxxxxxxxxxxxxxxxxxxxxxxxxxxxxxxxxxxxxxxxxxxxxxxxxxxxxxx :
b0xxxxxxxxxxxxxxxxxxxxxxxxxxxxxxxxxxxxxxxxxxxxxxxxxxxxxxxxxxx 8
b100000000000000000000000000000000101111001111101000011001001 ;
b11110000000000000001000000000000000000000000000000000000000 9
b1110100010000000000000001000000000000001001101101110100100110110 7
1%
#2150
0%
#2155
0D
1B
b10xxxxxxxxxxxxxxxxxxxxxxxxxxxxxxxxxxxxxxxxxxxxxxxxxxxxxxxxxx <
b0xxxxxxxxxxxxxxxxxxxxxxxxxxxxxxxxxxxxxxxxxxxxxxxxxxxxxxxxxx :
b0xxxxxxxxxxxxxxxxxxxxxxxxxxxxxxxxxxxxxxxxxxxxxxxxxxxxxxxxxx 8
b1000010000000000000000000000000000000010111100111110100001100100 ;
b1111000000000000000100000000000000000000000000000000000000 9
b111010001000000000000000100000000000000100110110111010010011011 7
b1000010000000000 U
b111010000000000 S
b1001 M
1%
#2160
0%
#2165
b1000 M
b100001000000000 U
b1011101000000000 S
b10xxxxxxxxxxxxxxxxxxxxxxxxxxxxxxxxxxxxxxxxxxxxxxxxxxxxxxxxx <
b0xxxxxxxxxxxxxxxxxxxxxxxxxxxxxxxxxxxxxxxxxxxxxxxxxxxxxxxxx :
b0xxxxxxxxxxxxxxxxxxxxxxxxxxxxxxxxxxxxxxxxxxxxxxxxxxxxxxxxx 8
b100001000000000000000000000000000000001011110011111010000110010 ;
b111100000000000000010000000000000000000000000000000000000 9
b1011101000100000000000000010000000000000010011011011101001001101 7
1%
#2170
0%
#2175
1D
0B
b10xxxxxxxxxxxxxxxxxxxxxxxxxxxxxxxxxxxxxxxxxxxxxxxxxxxxxxxx <
b0xxxxxxxxxxxxxxxxxxxxxxxxxxxxxxxxxxxxxxxxxxxxxxxxxxxxxxxx :
b0xxxxxxxxxxxxxxxxxxxxxxxxxxxxxxxxxxxxxxxxxxxxxxxxxxxxxxxx 8
b10000100000000000000000000000000000000101111001111101000011001 ;
b11110000000000000001000000000000000000000000000000000000 9
b1101110100010000000000000001000000000000001001101101110100100110 7
b10000100000000 U
b1101110100000000 S
b111 M
1%
#2180
0%
#2185
0D
1B
b110 M
b1001000010000000 U
b110111010000000 S
b10xxxxxxxxxxxxxxxxxxxxxxxxxxxxxxxxxxxxxxxxxxxxxxxxxxxxxxx <
b0xxxxxxxxxxxxxxxxxxxxxxxxxxxxxxxxxxxxxxxxxxxxxxxxxxxxxxx :
b0xxxxxxxxxxxxxxxxxxxxxxxxxxxxxxxxxxxxxxxxxxxxxxxxxxxxxxx 8
b1001000010000000000000000000000000000000010111100111110100001100 ;
b1111000000000000000100000000000000000000000000000000000 9
b110111010001000000000000000100000000000000100110110111010010011 7
1%
#2190
0%
#2195
b10xxxxxxxxxxxxxxxxxxxxxxxxxxxxxxxxxxxxxxxxxxxxxxxxxxxxxx <
b0xxxxxxxxxxxxxxxxxxxxxxxxxxxxxxxxxxxxxxxxxxxxxxxxxxxxxx :
b0xxxxxxxxxxxxxxxxxxxxxxxxxxxxxxxxxxxxxxxxxxxxxxxxxxxxxx 8
b100100001000000000000000000000000000000001011110011111010000110 ;
b111100000000000000010000000000000000000000000000000000 9
b1011011101000100000000000000010000000000000010011011011101001001 7
b100100001000000 U
b1011011101000000 S
b101 M
1%
#2200
0%
#2205
1D
0B
b100 M
b10010000100000 U
b1101101110100000 S
b10xxxxxxxxxxxxxxxxxxxxxxxxxxxxxxxxxxxxxxxxxxxxxxxxxxxxx <
b0xxxxxxxxxxxxxxxxxxxxxxxxxxxxxxxxxxxxxxxxxxxxxxxxxxxxx :
b0xxxxxxxxxxxxxxxxxxxxxxxxxxxxxxxxxxxxxxxxxxxxxxxxxxxxx 8
b10010000100000000000000000000000000000000101111001111101000011 ;
b11110000000000000001000000000000000000000000000000000 9
b1101101110100010000000000000001000000000000001001101101110100100 7
1%
#2210
0%
#2215
b10xxxxxxxxxxxxxxxxxxxxxxxxxxxxxxxxxxxxxxxxxxxxxxxxxxxx <
b0xxxxxxxxxxxxxxxxxxxxxxxxxxxxxxxxxxxxxxxxxxxxxxxxxxxx :
b0xxxxxxxxxxxxxxxxxxxxxxxxxxxxxxxxxxxxxxxxxxxxxxxxxxxx 8
b1001001000010000000000000000000000000000000010111100111110100001 ;
b1111000000000000000100000000000000000000000000000000 9
b110110111010001000000000000000100000000000000100110110111010010 7
b1001001000010000 U
b110110111010000 S
b11 M
1%
#2220
0%
#2225
0D
1B
b10 M
b1100100100001000 U
b11011011101000 S
b10xxxxxxxxxxxxxxxxxxxxxxxxxxxxxxxxxxxxxxxxxxxxxxxxxxx <
b0xxxxxxxxxxxxxxxxxxxxxxxxxxxxxxxxxxxxxxxxxxxxxxxxxxx :
b0xxxxxxxxxxxxxxxxxxxxxxxxxxxxxxxxxxxxxxxxxxxxxxxxxxx 8
b1100100100001000000000000000000000000000000001011110011111010000 ;
b111100000000000000010000000000000000000000000000000 9
b11011011101000100000000000000010000000000000010011011011101001 7
1%
#2230
0%
#2235
0B
b10xxxxxxxxxxxxxxxxxxxxxxxxxxxxxxxxxxxxxxxxxxxxxxxxxx <
b0xxxxxxxxxxxxxxxxxxxxxxxxxxxxxxxxxxxxxxxxxxxxxxxxxx :
b0xxxxxxxxxxxxxxxxxxxxxxxxxxxxxxxxxxxxxxxxxxxxxxxxxx 8
b110010010000100000000000000000000000000000000101111001111101000 ;
b11110000000000000001000000000000000000000000000000 9
b1001101101110100010000000000000001000000000000001001101101110100 7
b110010010000100 U
b1001101101110100 S
b1 M
1%
#2240
0%
#2245
1F
b0 M
b11001001000010 U
b100110110111010 S
b10xxxxxxxxxxxxxxxxxxxxxxxxxxxxxxxxxxxxxxxxxxxxxxxxx <
b0xxxxxxxxxxxxxxxxxxxxxxxxxxxxxxxxxxxxxxxxxxxxxxxxx :
b0xxxxxxxxxxxxxxxxxxxxxxxxxxxxxxxxxxxxxxxxxxxxxxxxx 8
b11001001000010000000000000000000000000000000010111100111110100 ;
b1111000000000000000100000000000000000000000000000 9
b100110110111010001000000000000000100000000000000100110110111010 7
1%
#2250
0%
#2255
1G
0E
1I
1B
1]
1\
1!
1W
1#
1J
b10xxxxxxxxxxxxxxxxxxxxxxxxxxxxxxxxxxxxxxxxxxxxxxxx <
b0xxxxxxxxxxxxxxxxxxxxxxxxxxxxxxxxxxxxxxxxxxxxxxxx :
b0xxxxxxxxxxxxxxxxxxxxxxxxxxxxxxxxxxxxxxxxxxxxxxxx 8
b1100100100001000000000000000000000000000000001011110011111010 ;
b111100000000000000010000000000000000000000000000 9
b10011011011101000100000000000000010000000000000010011011011101 7
b11001001000011 V
b1100100100001 U
b10011011011101 S
b0 Q
0R
0$
0K
1L
0F
b1111 M
1%
#2260
0%
#2265
0G
1E
0I
0\
0!
0W
0J
0#
0L
b1110 M
1O
b110010010000 U
b1000000000000000 T
b1001001101101110 S
b1100100100001 V
1%
#2270
0%
#2275
1G
1I
1E
0]
1W
1J
1#
b110010010000 V
b1000011001001000 U
b100000000000000 T
b100100110110111 S
0O
b1101 M
0^
1%
#2280
0%
#2285
b1100 M
1O
b1100001100100100 U
b1010000000000000 T
b1010010011011011 S
b11001001000 V
1%
#2290
0%
#2295
b1100100100 V
b1110000110010010 U
b1101000000000000 T
b1101001001101101 S
b1011 M
1%
#2300
0%
#2305
0G
0E
0I
1\
1!
0W
0J
0#
b1010 M
b1111000011001001 U
b1110100000000000 T
b1110100100110110 S
b110010010 V
1%
#2310
0%
#2315
1G
1I
1E
1]
0\
0!
1W
1J
1#
b11001001 V
b111100001100100 U
b111010000000000 T
b111010010011011 S
0O
b1001 M
1^
1%
#2320
0%
#2325
1E
0]
0^
b1000 M
1O
b1011110000110010 U
b1011101000000000 T
b1011101001001101 S
b1100100 V
1%
#2330
0%
#2335
0G
0E
0I
1\
1!
0W
0J
0#
b110010 V
b1101111000011001 U
b1101110100000000 T
b1101110100100110 S
b111 M
1%
#2340
0%
#2345
1G
1I
1E
0\
0!
1W
1J
1#
1]
1^
b110 M
0O
b110111100001100 U
b110111010000000 T
b110111010010011 S
b11001 V
1%
#2350
0%
#2355
1E
0]
b1100 V
b1011011110000110 U
b1011011101000000 T
b1011011101001001 S
1O
b101 M
0^
1%
#2360
0%
